<?xml version="1.0" encoding="UTF-8" standalone="no"?>
<!-- Created with Inkscape (http://www.inkscape.org/) -->

<svg
   xmlns:dc="http://purl.org/dc/elements/1.1/"
   xmlns:cc="http://creativecommons.org/ns#"
   xmlns:rdf="http://www.w3.org/1999/02/22-rdf-syntax-ns#"
   xmlns:svg="http://www.w3.org/2000/svg"
   xmlns="http://www.w3.org/2000/svg"
   xmlns:xlink="http://www.w3.org/1999/xlink"
   xmlns:sodipodi="http://sodipodi.sourceforge.net/DTD/sodipodi-0.dtd"
   xmlns:inkscape="http://www.inkscape.org/namespaces/inkscape"
   width="52"
   height="28"
   viewBox="0 0 13.758334 7.4083332"
   version="1.1"
   id="svg8"
   inkscape:version="0.92.5 (2060ec1f9f, 2020-04-08)"
   sodipodi:docname="btnGroup.svg"
   inkscape:export-filename="/home/sergio/guiEditor_2021/guieditor/srcGuiEditor/src/img/btnGroup.png"
   inkscape:export-xdpi="96"
   inkscape:export-ydpi="96">
  <defs
     id="defs2">
    <linearGradient
       inkscape:collect="always"
       id="linearGradient846">
      <stop
         style="stop-color:#cccccc;stop-opacity:1;"
         offset="0"
         id="stop842" />
      <stop
         style="stop-color:#cccccc;stop-opacity:0;"
         offset="1"
         id="stop844" />
    </linearGradient>
    <linearGradient
       inkscape:collect="always"
       xlink:href="#linearGradient846"
       id="linearGradient848"
       x1="11.164471"
       y1="-0.6562506"
       x2="8.7501497"
       y2="-6.0187879"
       gradientUnits="userSpaceOnUse" />
  </defs>
  <sodipodi:namedview
     id="base"
     pagecolor="#ffffff"
     bordercolor="#666666"
     borderopacity="1.0"
     inkscape:pageopacity="0.0"
     inkscape:pageshadow="2"
     inkscape:zoom="5.6"
     inkscape:cx="11.545259"
     inkscape:cy="-5.1874906"
     inkscape:document-units="mm"
     inkscape:current-layer="layer1"
     showgrid="false"
     inkscape:window-width="1294"
     inkscape:window-height="704"
     inkscape:window-x="72"
     inkscape:window-y="27"
     inkscape:window-maximized="1"
     fit-margin-top="0"
     fit-margin-left="0"
     fit-margin-right="0"
     fit-margin-bottom="0"
     units="px" />
  <metadata
     id="metadata5">
    <rdf:RDF>
      <cc:Work
         rdf:about="">
        <dc:format>image/svg+xml</dc:format>
        <dc:type
           rdf:resource="http://purl.org/dc/dcmitype/StillImage" />
        <dc:title />
      </cc:Work>
    </rdf:RDF>
  </metadata>
  <g
     inkscape:label="Capa 1"
     inkscape:groupmode="layer"
     id="layer1"
     transform="translate(-3.4490332,6.7700159)">
    <rect
       id="rect21"
       width="9.4021587"
       height="5.6223955"
       x="5.6271205"
       y="-5.5463176"
       style="fill:url(#linearGradient848);fill-opacity:1;stroke:#000000;stroke-width:0.26458332;stroke-opacity:1"
       ry="0.8504464" />
    <rect
       style="fill:#cccccc;fill-opacity:1;stroke:#000000;stroke-width:0.26458332;stroke-opacity:1"
       id="rect4534"
       width="5.7168894"
       height="1.3229166"
       x="6.4822927"
       y="-6.2077761"
       ry="0.14174229" />
    <g
       id="g835"
       transform="translate(1.3512648,-0.04960869)">
      <g
         transform="translate(12.298401,-8.4666673)"
         id="g4554">
        <ellipse
           ry="0.56696427"
           rx="0.63783485"
           cy="6.7142849"
           cx="-5.5987725"
           id="ellipse4540"
           style="fill:#ffffff;fill-opacity:1;stroke:#000000;stroke-width:0.26458332;stroke-opacity:1" />
        <path
           sodipodi:nodetypes="cc"
           inkscape:connector-curvature="0"
           id="path4542"
           d="m -4.2994792,6.7142849 h 4.02544643"
           style="fill:none;stroke:#000000;stroke-width:0.26458332px;stroke-linecap:butt;stroke-linejoin:miter;stroke-opacity:1" />
      </g>
      <g
         transform="translate(12.345648,-12.270053)"
         id="g4550">
        <ellipse
           style="fill:#999999;fill-opacity:1;stroke:#000000;stroke-width:0.26458332;stroke-opacity:1"
           id="ellipse4544"
           cx="-5.6460195"
           cy="8.651413"
           rx="0.63783485"
           ry="0.56696427" />
        <path
           style="fill:none;stroke:#000000;stroke-width:0.26458332px;stroke-linecap:butt;stroke-linejoin:miter;stroke-opacity:1"
           d="m -4.3467262,8.6514129 h 4.02544643"
           id="path4546"
           inkscape:connector-curvature="0"
           sodipodi:nodetypes="cc" />
      </g>
    </g>
  </g>
</svg>
