<?xml version="1.0" encoding="UTF-8" standalone="no"?>
<!-- Created with Inkscape (http://www.inkscape.org/) -->

<svg
   xmlns:dc="http://purl.org/dc/elements/1.1/"
   xmlns:cc="http://creativecommons.org/ns#"
   xmlns:rdf="http://www.w3.org/1999/02/22-rdf-syntax-ns#"
   xmlns:svg="http://www.w3.org/2000/svg"
   xmlns="http://www.w3.org/2000/svg"
   xmlns:sodipodi="http://sodipodi.sourceforge.net/DTD/sodipodi-0.dtd"
   xmlns:inkscape="http://www.inkscape.org/namespaces/inkscape"
   width="49.866127"
   height="32.314808"
   viewBox="0 0 13.193746 8.54996"
   version="1.1"
   id="svg8"
   inkscape:version="0.92.5 (2060ec1f9f, 2020-04-08)"
   sodipodi:docname="table.svg"
   inkscape:export-filename="/home/sergio/guiEditor_2022/guieditor/srcGuiEditor/src/img/table.png"
   inkscape:export-xdpi="101.00632"
   inkscape:export-ydpi="101.00632">
  <defs
     id="defs2" />
  <sodipodi:namedview
     id="base"
     pagecolor="#ffffff"
     bordercolor="#666666"
     borderopacity="1.0"
     inkscape:pageopacity="0.0"
     inkscape:pageshadow="2"
     inkscape:zoom="7.9195959"
     inkscape:cx="26.077231"
     inkscape:cy="15.591616"
     inkscape:document-units="mm"
     inkscape:current-layer="layer1"
     showgrid="false"
     units="px"
     fit-margin-left="0"
     fit-margin-top="0"
     fit-margin-right="0"
     fit-margin-bottom="0"
     inkscape:window-width="1294"
     inkscape:window-height="704"
     inkscape:window-x="72"
     inkscape:window-y="27"
     inkscape:window-maximized="1" />
  <metadata
     id="metadata5">
    <rdf:RDF>
      <cc:Work
         rdf:about="">
        <dc:format>image/svg+xml</dc:format>
        <dc:type
           rdf:resource="http://purl.org/dc/dcmitype/StillImage" />
        <dc:title></dc:title>
      </cc:Work>
    </rdf:RDF>
  </metadata>
  <g
     inkscape:label="Capa 1"
     inkscape:groupmode="layer"
     id="layer1"
     transform="translate(-0.23520352,-285.57555)">
    <rect
       ry="0"
       y="287.37695"
       x="0.38752621"
       height="1.6490613"
       width="4.2963667"
       id="rect821"
       style="opacity:1;fill:#b3b3b3;fill-opacity:1;stroke:#070000;stroke-width:0.30464539;stroke-miterlimit:4;stroke-dasharray:none;stroke-dashoffset:0;stroke-opacity:1" />
    <rect
       ry="0"
       y="287.37692"
       x="4.6838932"
       height="1.6490613"
       width="4.2963667"
       id="rect831"
       style="opacity:1;fill:#ffffff;fill-opacity:1;stroke:#494949;stroke-width:0.30464539;stroke-miterlimit:4;stroke-dasharray:none;stroke-dashoffset:0;stroke-opacity:1" />
    <rect
       style="opacity:1;fill:#ffffff;fill-opacity:1;stroke:#494949;stroke-width:0.30464539;stroke-miterlimit:4;stroke-dasharray:none;stroke-dashoffset:0;stroke-opacity:1"
       id="rect833"
       width="4.2963667"
       height="1.6490613"
       x="8.9802599"
       y="287.37692"
       ry="0" />
    <rect
       ry="0"
       y="289.02597"
       x="8.9802599"
       height="1.6490613"
       width="4.2963667"
       id="rect835"
       style="opacity:1;fill:#ffffff;fill-opacity:1;stroke:#494949;stroke-width:0.30464539;stroke-miterlimit:4;stroke-dasharray:none;stroke-dashoffset:0;stroke-opacity:1" />
    <rect
       style="opacity:1;fill:#ffffff;fill-opacity:1;stroke:#494949;stroke-width:0.30464539;stroke-miterlimit:4;stroke-dasharray:none;stroke-dashoffset:0;stroke-opacity:1"
       id="rect837"
       width="4.2963667"
       height="1.6490613"
       x="4.6838932"
       y="289.02597"
       ry="0" />
    <rect
       ry="0"
       y="290.67502"
       x="4.6838932"
       height="1.6490613"
       width="4.2963667"
       id="rect839"
       style="opacity:1;fill:#ffffff;fill-opacity:1;stroke:#494949;stroke-width:0.30464539;stroke-miterlimit:4;stroke-dasharray:none;stroke-dashoffset:0;stroke-opacity:1" />
    <rect
       style="opacity:1;fill:#ffffff;fill-opacity:1;stroke:#494949;stroke-width:0.30464539;stroke-miterlimit:4;stroke-dasharray:none;stroke-dashoffset:0;stroke-opacity:1"
       id="rect841"
       width="4.2963667"
       height="1.6490613"
       x="8.9802599"
       y="290.67502"
       ry="0" />
    <rect
       ry="0"
       y="292.32407"
       x="8.9802599"
       height="1.6490613"
       width="4.2963667"
       id="rect843"
       style="opacity:1;fill:#ffffff;fill-opacity:1;stroke:#494949;stroke-width:0.30464539;stroke-miterlimit:4;stroke-dasharray:none;stroke-dashoffset:0;stroke-opacity:1" />
    <rect
       style="opacity:1;fill:#ffffff;fill-opacity:1;stroke:#494949;stroke-width:0.30464539;stroke-miterlimit:4;stroke-dasharray:none;stroke-dashoffset:0;stroke-opacity:1"
       id="rect845"
       width="4.2963667"
       height="1.6490613"
       x="4.6838932"
       y="292.32407"
       ry="0" />
    <rect
       style="opacity:1;fill:#b3b3b3;fill-opacity:1;stroke:#070000;stroke-width:0.30464539;stroke-miterlimit:4;stroke-dasharray:none;stroke-dashoffset:0;stroke-opacity:1"
       id="rect10"
       width="4.2963667"
       height="1.6490613"
       x="0.38752672"
       y="285.72787"
       ry="0" />
    <rect
       ry="0"
       y="285.72787"
       x="4.6838937"
       height="1.6490613"
       width="4.2963667"
       id="rect817"
       style="opacity:1;fill:#b3b3b3;fill-opacity:1;stroke:#070000;stroke-width:0.30464539;stroke-miterlimit:4;stroke-dasharray:none;stroke-dashoffset:0;stroke-opacity:1" />
    <rect
       style="opacity:1;fill:#b3b3b3;fill-opacity:1;stroke:#070000;stroke-width:0.30464539;stroke-miterlimit:4;stroke-dasharray:none;stroke-dashoffset:0;stroke-opacity:1"
       id="rect819"
       width="4.2963667"
       height="1.6490613"
       x="8.9802599"
       y="285.72787"
       ry="0" />
    <rect
       style="opacity:1;fill:#b3b3b3;fill-opacity:1;stroke:#070000;stroke-width:0.30464539;stroke-miterlimit:4;stroke-dasharray:none;stroke-dashoffset:0;stroke-opacity:1"
       id="rect823"
       width="4.2963667"
       height="1.6490613"
       x="0.38752621"
       y="287.37695"
       ry="0" />
    <rect
       style="opacity:1;fill:#b3b3b3;fill-opacity:1;stroke:#070000;stroke-width:0.30464539;stroke-miterlimit:4;stroke-dasharray:none;stroke-dashoffset:0;stroke-opacity:1"
       id="rect825"
       width="4.2963667"
       height="1.6490613"
       x="0.38752621"
       y="289.026"
       ry="0" />
    <rect
       ry="0"
       y="290.67508"
       x="0.38752621"
       height="1.6490613"
       width="4.2963667"
       id="rect827"
       style="opacity:1;fill:#b3b3b3;fill-opacity:1;stroke:#070000;stroke-width:0.30464539;stroke-miterlimit:4;stroke-dasharray:none;stroke-dashoffset:0;stroke-opacity:1" />
    <rect
       style="opacity:1;fill:#b3b3b3;fill-opacity:1;stroke:#070000;stroke-width:0.30464539;stroke-miterlimit:4;stroke-dasharray:none;stroke-dashoffset:0;stroke-opacity:1"
       id="rect829"
       width="4.2963667"
       height="1.6490613"
       x="0.38752621"
       y="292.32413"
       ry="0" />
  </g>
</svg>
